{
    "id": "7d666a52-441f-4ed7-b29e-2cf03687cc8e",
    "schema": "https://metadata.datadrivendiscovery.org/schemas/v0/pipeline.json",
    "created": "2019-03-27T21:53:42.881036Z",
    "inputs": [
        {
            "name": "inputs"
        }
    ],
    "outputs": [
        {
            "data": "steps.18.produce",
            "name": "Output"
        }
    ],
    "steps": [
        {
            "type": "PRIMITIVE",
            "primitive": {
                "id": "4b42ce1e-9b98-4a25-b68e-fad13311eb65",
                "version": "0.3.0",
                "python_path": "d3m.primitives.data_transformation.dataset_to_dataframe.Common",
                "name": "Extract a DataFrame from a Dataset",
                "digest": "789969c6a4a81b25b04c95963721259599f8c43c90a6091e49f44c7fe08f51de"
            },
            "arguments": {
                "inputs": {
                    "type": "CONTAINER",
                    "data": "inputs.0"
                }
            },
            "outputs": [
                {
                    "id": "produce"
                }
            ]
        },
        {
            "type": "PRIMITIVE",
            "primitive": {
                "id": "d510cb7a-1782-4f51-b44c-58f0236e47c7",
                "version": "0.5.0",
                "python_path": "d3m.primitives.data_transformation.column_parser.DataFrameCommon",
                "name": "Parses strings into their types",
                "digest": "f745c190eda8f0fd36e1526e963441dc0c28f3c36218199d3e21145f785a74ad"
            },
            "arguments": {
                "inputs": {
                    "type": "CONTAINER",
                    "data": "steps.0.produce"
                }
            },
            "outputs": [
                {
                    "id": "produce"
                }
            ]
        },
        {
            "type": "PRIMITIVE",
            "primitive": {
                "id": "ebfeb6f0-e366-4082-b1a7-602fd50acc96",
                "version": "0.1.4",
                "python_path": "d3m.primitives.data_preprocessing.random_sampling_imputer.BYU",
                "name": "Random Sampling Imputer",
                "digest": "5588dc61d64ae0442b07f51dbe6504bb340aeabe1e8d06b0e85bb95eaf71c041"
            },
            "arguments": {
                "inputs": {
                    "type": "CONTAINER",
                    "data": "steps.1.produce"
                }
            },
            "outputs": [
                {
                    "id": "produce"
                }
            ]
        },
        {
            "type": "PRIMITIVE",
            "primitive": {
                "id": "4503a4c6-42f7-45a1-a1d4-ed69699cf5e1",
                "version": "0.2.0",
                "python_path": "d3m.primitives.data_transformation.extract_columns_by_semantic_types.DataFrameCommon",
                "name": "Extracts columns by semantic type",
                "digest": "57db870295ef8a63e62429950d7e19c417f07bb9e52124e1f9065b2b0cd55a11"
            },
            "arguments": {
                "inputs": {
                    "type": "CONTAINER",
                    "data": "steps.0.produce"
                }
            },
            "outputs": [
                {
                    "id": "produce"
                }
            ],
            "hyperparams": {
                "semantic_types": {
                    "type": "VALUE",
                    "data": [
                        "https://metadata.datadrivendiscovery.org/types/TrueTarget"
                    ]
                }
            }
        },
        {
            "type": "PRIMITIVE",
            "primitive": {
              "id": "7ddf2fd8-2f7f-4e53-96a7-0d9f5aeecf93",
              "version": "1.5.2",
              "python_path": "d3m.primitives.data_transformation.to_numeric.DSBOX",
              "name": "ISI DSBox To Numeric DataFrame",
              "digest": "571beb63f5a194d54fe181fe938cecfde2e5da70d4c990693c50a83982cab8fc"
            },
            "arguments": {
              "inputs": {
                "type": "CONTAINER",
                "data": "steps.3.produce"
              }
            },
            "outputs": [
              {
                "id": "produce"
              }
            ],
            "hyperparams": {
              "drop_non_numeric_columns": {
                "type": "VALUE",
                "data": false
              }
            }
          },      
        {
            "type": "PRIMITIVE",
            "primitive": {
                "id": "09a4cffa-a59f-30ac-b78f-101c35b3f7c6",
                "version": "2019.4.4",
                "python_path": "d3m.primitives.feature_selection.select_fwe.SKlearn",
                "name": "sklearn.feature_selection.univariate_selection.SelectFwe",
                "digest": "590e458652f3b3b337c5cdbe7cc1604a11f9e74cb4cca1fb86fa903fa614e947"
            },
            "arguments": {
                "inputs": {
                    "type": "CONTAINER",
                    "data": "steps.2.produce"
                },
                "outputs": {
                    "type": "CONTAINER",
                    "data": "steps.4.produce"
                }
            },
            "outputs": [
                {
                    "id": "produce"
                }
            ],
            "hyperparams": {
                "use_semantic_types": {
                    "type": "VALUE",
                    "data": true
                },
                "return_result": {
                    "type": "VALUE",
                    "data": "replace"
                }
            }
        },
        {
            "type": "PRIMITIVE",
            "primitive": {
                "id": "c8a28f02-ef4a-35a8-87f1-cf79980f5c3e",
                "version": "2019.4.4",
                "python_path": "d3m.primitives.classification.extra_trees.SKlearn",
                "name": "sklearn.ensemble.forest.ExtraTreesClassifier",
                "digest": "90e65042b4c5f0ea9fdf0c013cfa07b6e6155d7009d73e15f86e33e8efbe709b"
            },
            "arguments": {
                "inputs": {
                    "type": "CONTAINER",
                    "data": "steps.5.produce"
                },
                "outputs": {
                    "type": "CONTAINER",
                    "data": "steps.5.produce"
                }
            },
            "outputs": [
                {
                    "id": "produce"
                }
            ],
            "hyperparams": {
                "use_semantic_types": {
                    "type": "VALUE",
                    "data": true
                },
                "return_result": {
                    "type": "VALUE",
                    "data": "replace"
                }
            }
        },
        {
            "type": "PRIMITIVE",
            "primitive": {
                "id": "8d38b340-f83f-4877-baaa-162f8e551736",
                "version": "0.3.0",
                "python_path": "d3m.primitives.data_transformation.construct_predictions.DataFrameCommon",
                "name": "Construct pipeline predictions output",
                "digest": "1bcf4fcd4ae79e0cb64033f471d6dbd7aab1ae71a65ed05ee21625e276a3ad0e"
            },
            "arguments": {
                "inputs": {
                    "type": "CONTAINER",
                    "data": "steps.6.produce"
                },
                "reference": {
                    "type": "CONTAINER",
                    "data": "steps.2.produce"
                }
            },
            "outputs": [
                {
                    "id": "produce"
                }
            ]
        },
        {
            "type": "PRIMITIVE",
            "primitive": {
                "id": "08d0579d-38da-307b-8b75-6a213ef2972e",
                "version": "2019.4.4",
                "python_path": "d3m.primitives.data_preprocessing.min_max_scaler.SKlearn",
                "name": "sklearn.preprocessing.data.MinMaxScaler",
                "digest": "b15a9cff73e5748ab58337183f1b1c09f21c9ba5278689c73d3c86428e20e796"
            },
            "arguments": {
                "inputs": {
                    "type": "CONTAINER",
                    "data": "steps.2.produce"
                }
            },
            "outputs": [
                {
                    "id": "produce"
                }
            ],
            "hyperparams": {
                "use_semantic_types": {
                    "type": "VALUE",
                    "data": true
                },
                "return_result": {
                    "type": "VALUE",
                    "data": "replace"
                }
            }
        },
        {
            "type": "PRIMITIVE",
            "primitive": {
                "id": "c8a28f02-ef4a-35a8-87f1-cf79980f5c3e",
                "version": "2019.4.4",
                "python_path": "d3m.primitives.classification.extra_trees.SKlearn",
                "name": "sklearn.ensemble.forest.ExtraTreesClassifier",
                "digest": "90e65042b4c5f0ea9fdf0c013cfa07b6e6155d7009d73e15f86e33e8efbe709b"
            },
            "arguments": {
                "inputs": {
                    "type": "CONTAINER",
                    "data": "steps.8.produce"
                },
                "outputs": {
                    "type": "CONTAINER",
                    "data": "steps.8.produce"
                }
            },
            "outputs": [
                {
                    "id": "produce"
                }
            ],
            "hyperparams": {
                "use_semantic_types": {
                    "type": "VALUE",
                    "data": true
                },
                "return_result": {
                    "type": "VALUE",
                    "data": "replace"
                }
            }
        },
        {
            "type": "PRIMITIVE",
            "primitive": {
                "id": "8d38b340-f83f-4877-baaa-162f8e551736",
                "version": "0.3.0",
                "python_path": "d3m.primitives.data_transformation.construct_predictions.DataFrameCommon",
                "name": "Construct pipeline predictions output",
                "digest": "1bcf4fcd4ae79e0cb64033f471d6dbd7aab1ae71a65ed05ee21625e276a3ad0e"
            },
            "arguments": {
                "inputs": {
                    "type": "CONTAINER",
                    "data": "steps.9.produce"
                },
                "reference": {
                    "type": "CONTAINER",
                    "data": "steps.2.produce"
                }
            },
            "outputs": [
                {
                    "id": "produce"
                }
            ]
        },
        {
            "type": "PRIMITIVE",
            "primitive": {
                "id": "ca3a4357-a49f-31f0-82ed-244b66e29426",
                "version": "2019.4.4",
                "python_path": "d3m.primitives.data_preprocessing.nystroem.SKlearn",
                "name": "sklearn.kernel_approximation.Nystroem",
                "digest": "4f761c5419a8e356e64c4b6c31565a2a7744b12b638c3d79ea375cc15139ae2e"
            },
            "arguments": {
                "inputs": {
                    "type": "CONTAINER",
                    "data": "steps.2.produce"
                }
            },
            "outputs": [
                {
                    "id": "produce"
                }
            ],
            "hyperparams": {
                "use_semantic_types": {
                    "type": "VALUE",
                    "data": true
                },
                "return_result": {
                    "type": "VALUE",
                    "data": "replace"
                }
            }
        },
        {
            "type": "PRIMITIVE",
            "primitive": {
                "id": "c8a28f02-ef4a-35a8-87f1-cf79980f5c3e",
                "version": "2019.4.4",
                "python_path": "d3m.primitives.classification.extra_trees.SKlearn",
                "name": "sklearn.ensemble.forest.ExtraTreesClassifier",
                "digest": "90e65042b4c5f0ea9fdf0c013cfa07b6e6155d7009d73e15f86e33e8efbe709b"
            },
            "arguments": {
                "inputs": {
                    "type": "CONTAINER",
                    "data": "steps.11.produce"
                },
                "outputs": {
                    "type": "CONTAINER",
                    "data": "steps.11.produce"
                }
            },
            "outputs": [
                {
                    "id": "produce"
                }
            ],
            "hyperparams": {
                "use_semantic_types": {
                    "type": "VALUE",
                    "data": true
                },
                "return_result": {
                    "type": "VALUE",
                    "data": "replace"
                }
            }
        },
        {
            "type": "PRIMITIVE",
            "primitive": {
                "id": "8d38b340-f83f-4877-baaa-162f8e551736",
                "version": "0.3.0",
                "python_path": "d3m.primitives.data_transformation.construct_predictions.DataFrameCommon",
                "name": "Construct pipeline predictions output",
                "digest": "1bcf4fcd4ae79e0cb64033f471d6dbd7aab1ae71a65ed05ee21625e276a3ad0e"
            },
            "arguments": {
                "inputs": {
                    "type": "CONTAINER",
                    "data": "steps.12.produce"
                },
                "reference": {
                    "type": "CONTAINER",
                    "data": "steps.2.produce"
                }
            },
            "outputs": [
                {
                    "id": "produce"
                }
            ]
        },
        {
            "type": "PRIMITIVE",
            "primitive": {
                "id": "aff6a77a-faa0-41c5-9595-de2e7f7c4760",
                "version": "0.2.0",
                "python_path": "d3m.primitives.data_transformation.horizontal_concat.DataFrameConcat",
                "name": "Concatenate two dataframes",
                "digest": "9d84d97738d4d5b895f09242951461a1b2f04aae135c1c2987cf3d8021259b1f"
            },
            "arguments": {
                "left": {
                    "type": "CONTAINER",
                    "data": "steps.7.produce"
                },
                "right": {
                    "type": "CONTAINER",
                    "data": "steps.10.produce"
                }
            },
            "outputs": [
                {
                    "id": "produce"
                }
            ],
            "hyperparams": {
                "use_index": {
                    "type": "VALUE",
                    "data": false
                }
            }
        },
        {
            "type": "PRIMITIVE",
            "primitive": {
                "id": "aff6a77a-faa0-41c5-9595-de2e7f7c4760",
                "version": "0.2.0",
                "python_path": "d3m.primitives.data_transformation.horizontal_concat.DataFrameConcat",
                "name": "Concatenate two dataframes",
                "digest": "9d84d97738d4d5b895f09242951461a1b2f04aae135c1c2987cf3d8021259b1f"
            },
            "arguments": {
                "left": {
                    "type": "CONTAINER",
                    "data": "steps.14.produce"
                },
                "right": {
                    "type": "CONTAINER",
                    "data": "steps.13.produce"
                }
            },
            "outputs": [
                {
                    "id": "produce"
                }
            ],
            "hyperparams": {
                "use_index": {
                    "type": "VALUE",
                    "data": false
                }
            }
        },
        {
            "type": "PRIMITIVE",
            "primitive": {
                "id": "7b067a78-4ad4-411d-9cf9-87bcee38ac73",
                "version": "0.2.0",
                "python_path": "d3m.primitives.data_transformation.rename_duplicate_name.DataFrameCommon",
                "name": "Rename all the duplicated name column in DataFrame",
                "digest": "ed419494326340a5160d3a37e6c3d7cc32386a1c3f18a06c39e1e2040800fedc"
            },
            "arguments": {
                "inputs": {
                    "type": "CONTAINER",
                    "data": "steps.15.produce"
                }
            },
            "outputs": [
                {
                    "id": "produce"
                }
            ]
        },
        {
            "type": "PRIMITIVE",
            "primitive": {
                "id": "c8a28f02-ef4a-35a8-87f1-cf79980f5c3e",
                "version": "2019.4.4",
                "python_path": "d3m.primitives.classification.extra_trees.SKlearn",
                "name": "sklearn.ensemble.forest.ExtraTreesClassifier",
                "digest": "90e65042b4c5f0ea9fdf0c013cfa07b6e6155d7009d73e15f86e33e8efbe709b"
            },
            "arguments": {
                "inputs": {
                    "type": "CONTAINER",
                    "data": "steps.16.produce"
                },
                "outputs": {
                    "type": "CONTAINER",
                    "data": "steps.4.produce"
                }
            },
            "outputs": [
                {
                    "id": "produce"
                }
            ],
            "hyperparams": {
                "return_result": {
                    "type": "VALUE",
                    "data": "new"
                }
            }
        },
        {
            "type": "PRIMITIVE",
            "primitive": {
              "id": "8d38b340-f83f-4877-baaa-162f8e551736",
              "version": "0.3.0",
              "python_path": "d3m.primitives.data_transformation.construct_predictions.DataFrameCommon",
              "name": "Construct pipeline predictions output"
            },
            "arguments": {
              "inputs": {
                "type": "CONTAINER",
                "data": "steps.17.produce"
              },
              "reference": {
                "type": "CONTAINER",
                "data": "steps.2.produce"
              }
            },
            "outputs": [
              {
                "id": "produce"
              }
            ]
          }
    ],
    "digest": "7d45aa7b08036cb3998eb96b0ba0e352073308a4418c9d456dc9ef2a2b8ee1ec"
}
