{
  "id": "44d3dd32-9c25-4635-9f9d-1feca182da2c",
  "schema": "https://metadata.datadrivendiscovery.org/schemas/v0/pipeline.json",
  "created": "2019-03-04T23:34:23.435934Z",
  "inputs": [
    {
      "name": "input dataset"
    }
  ],
  "outputs": [
    {
      "data": "steps.7.produce",
      "name": "predictions of input dataset"
    }
  ],
  "steps": [
    {
      "type": "PRIMITIVE",
      "primitive": {
        "id": "f31f8c1f-d1c5-43e5-a4b2-2ae4a761ef2e",
        "version": "0.2.0",
        "python_path": "d3m.primitives.data_transformation.denormalize.Common",
        "name": "Denormalize datasets",
        "digest": "afca078f05899b9f329e1b8cc0973848e39e83a7521d2cade81c1fbad5cf8139"
      },
      "arguments": {
        "inputs": {
          "type": "CONTAINER",
          "data": "inputs.0"
        }
      },
      "outputs": [
        {
          "id": "produce"
        }
      ]
    },
    {
      "type": "PRIMITIVE",
      "primitive": {
        "id": "4b42ce1e-9b98-4a25-b68e-fad13311eb65",
        "version": "0.3.0",
        "python_path": "d3m.primitives.data_transformation.dataset_to_dataframe.Common",
        "name": "Extract a DataFrame from a Dataset",
        "digest": "e557fc176af67913ed241dbe793cf986439157cfe9c4a12f1aafcba3c07b8b6f"
      },
      "arguments": {
        "inputs": {
          "type": "CONTAINER",
          "data": "steps.0.produce"
        }
      },
      "outputs": [
        {
          "id": "produce"
        }
      ]
    },
    {
      "type": "PRIMITIVE",
      "primitive": {
        "id": "4503a4c6-42f7-45a1-a1d4-ed69699cf5e1",
        "version": "0.2.0",
        "python_path": "d3m.primitives.data_transformation.extract_columns_by_semantic_types.DataFrameCommon",
        "name": "Extracts columns by semantic type",
        "digest": "d4fa27a3e215b89d2231d344ec0202e1b8e41ad322deb79c68fd6ca673eae3f7"
      },
      "arguments": {
        "inputs": {
          "type": "CONTAINER",
          "data": "steps.1.produce"
        }
      },
      "outputs": [
        {
          "id": "produce"
        }
      ],
      "hyperparams": {
        "semantic_types": {
          "type": "VALUE",
          "data": [
            "https://metadata.datadrivendiscovery.org/types/PrimaryKey",
            "https://metadata.datadrivendiscovery.org/types/Attribute"
          ]
        }
      }
    },
    {
      "type": "PRIMITIVE",
      "primitive": {
        "id": "4503a4c6-42f7-45a1-a1d4-ed69699cf5e1",
        "version": "0.2.0",
        "python_path": "d3m.primitives.data_transformation.extract_columns_by_semantic_types.DataFrameCommon",
        "name": "Extracts columns by semantic type",
        "digest": "d4fa27a3e215b89d2231d344ec0202e1b8e41ad322deb79c68fd6ca673eae3f7"
      },
      "arguments": {
        "inputs": {
          "type": "CONTAINER",
          "data": "steps.1.produce"
        }
      },
      "outputs": [
        {
          "id": "produce"
        }
      ],
      "hyperparams": {
        "semantic_types": {
          "type": "VALUE",
          "data": [
            "https://metadata.datadrivendiscovery.org/types/Target",
            "https://metadata.datadrivendiscovery.org/types/TrueTarget"
          ]
        }
      }
    },
    {
      "type": "PRIMITIVE",
      "primitive": {
        "id": "7ddf2fd8-2f7f-4e53-96a7-0d9f5aeecf93",
        "version": "1.5.3",
        "python_path": "d3m.primitives.data_transformation.to_numeric.DSBOX",
        "name": "ISI DSBox To Numeric DataFrame",
        "digest": "2756820b9b3fc0d406b7cd832f662a69874acfbbc934e4f99a5105a5b257a9c5"
      },
      "arguments": {
        "inputs": {
          "type": "CONTAINER",
          "data": "steps.3.produce"
        }
      },
      "outputs": [
        {
          "id": "produce"
        }
      ],
      "hyperparams": {
        "drop_non_numeric_columns": {
          "type": "VALUE",
          "data": false
        }
      }
    },
    {
      "type": "PRIMITIVE",
      "primitive": {
        "id": "dsbox-multi-table-feature-labler",
        "version": "1.5.3",
        "python_path": "d3m.primitives.data_cleaning.label_encoder.DSBOX",
        "name": "DSBox feature labeler",
        "digest": "7ae8b412182631cd70f0c045b83cc6d2d8a454e9b9766bf0061da529e3cb7a42"
      },
      "arguments": {
        "inputs": {
          "type": "CONTAINER",
          "data": "steps.2.produce"
        }
      },
      "outputs": [
        {
          "id": "produce"
        }
      ]
    },
    {
      "type": "PRIMITIVE",
      "primitive": {
        "id": "7ddf2fd8-2f7f-4e53-96a7-0d9f5aeecf93",
        "version": "1.5.3",
        "python_path": "d3m.primitives.data_transformation.to_numeric.DSBOX",
        "name": "ISI DSBox To Numeric DataFrame",
        "digest": "2756820b9b3fc0d406b7cd832f662a69874acfbbc934e4f99a5105a5b257a9c5"
      },
      "arguments": {
        "inputs": {
          "type": "CONTAINER",
          "data": "steps.5.produce"
        }
      },
      "outputs": [
        {
          "id": "produce"
        }
      ]
    },
    {
      "type": "PRIMITIVE",
      "primitive": {
        "id": "f0fd7a62-09b5-3abc-93bb-f5f999f7cc80",
        "version": "2019.6.7",
        "python_path": "d3m.primitives.regression.random_forest.SKlearn",
        "name": "sklearn.ensemble.forest.RandomForestRegressor",
        "digest": "931d0bf8a0939eec717a075336b4469bbab4a4419656f5e4cc21d328add25f72"
      },
      "arguments": {
        "inputs": {
          "type": "CONTAINER",
          "data": "steps.6.produce"
        },
        "outputs": {
          "type": "CONTAINER",
          "data": "steps.4.produce"
        }
      },
      "outputs": [
        {
          "id": "produce"
        }
      ],
      "hyperparams": {
        "add_index_columns": {
          "type": "VALUE",
          "data": true
        },
        "use_semantic_types": {
          "type": "VALUE",
          "data": true
        }
      }
    }
  ],
  "name": "Large_column_number_with_numerical_only_regression:140699261594360",
  "description": "",
  "digest": "83be0e1b69c9303c1f7c86c8e24e6ad01f887dc063da1eb6e99cd69b779bcf37"
}
